5255.000000 0.999985 5.000000 5.000000 0.999985 1.357689 
5265.000000 0.000000 5.000000 5.000000 0.000000 1.500000 
5275.000000 0.999994 5.000000 5.000000 0.999994 1.357691 
5285.000000 0.000027 5.000000 5.000000 0.000027 1.500000 
5295.000000 0.000000 5.000000 5.000000 0.000000 1.500000 
5305.000000 0.000000 5.000000 5.000000 0.000000 1.500000 
5315.000000 0.000004 5.000000 5.000000 0.000004 1.500000 
5325.000000 0.000000 5.000000 5.000000 0.000000 1.500000 
5335.000000 1.601809 5.000000 5.000000 1.601809 3.677389 
5345.000000 7.562215 5.000000 5.000000 2.490380 3.160952 
5355.000000 7.728396 5.000000 5.000000 2.952407 3.654139 
5365.000000 2.175005 5.000000 5.000000 2.175005 8.517575 
5375.000000 10.999983 5.000000 5.000000 2.992009 3.658003 
5385.000000 4.106470 5.000000 5.000000 2.626231 3.507573 
5395.000000 0.000000 5.000000 5.000000 0.000000 1.500000 
5405.000000 0.000000 5.000000 5.000000 0.000000 1.500000 
5415.000000 0.999994 5.000000 5.000000 0.999994 1.357685 
5425.000000 1.999855 5.000000 5.000000 1.102423 1.765431 
5435.000000 0.000005 5.000000 5.000000 0.000005 1.500000 
5445.000000 0.000000 5.000000 5.000000 0.000000 1.500000 
5455.000000 0.000000 5.000000 5.000000 0.000000 1.500000 
5465.000000 0.000000 5.000000 5.000000 0.000000 1.500000 
5475.000000 0.000000 5.000000 5.000000 0.000000 1.500000 
5485.000000 0.000000 5.000000 5.000000 0.000000 1.500000 
5495.000000 0.000000 5.000000 5.000000 0.000000 1.500000 
